<?xml version="1.0" encoding="UTF-8"?>
<!DOCTYPE svg PUBLIC "-//W3C//DTD SVG 1.1//EN" "http://www.w3.org/Graphics/SVG/1.1/DTD/svg11.dtd">
<!-- Creator: CorelDRAW -->
<svg xmlns="http://www.w3.org/2000/svg" xml:space="preserve" width="1.70666in" height="1.70666in" version="1.1" style="shape-rendering:geometricPrecision; text-rendering:geometricPrecision; image-rendering:optimizeQuality; fill-rule:evenodd; clip-rule:evenodd"
viewBox="0 0 1706.66 1706.66"
 xmlns:xlink="http://www.w3.org/1999/xlink"
 xmlns:xodm="http://www.corel.com/coreldraw/odm/2003">
 <defs>
  <style type="text/css">
   <![CDATA[
    .fil2 {fill:url(#id0)}
    .fil4 {fill:url(#id1)}
    .fil3 {fill:url(#id2)}
    .fil0 {fill:url(#id3)}
    .fil1 {fill:url(#id4)}
   ]]>
  </style>
  <linearGradient id="id0" gradientUnits="userSpaceOnUse" x1="421.05" y1="829.63" x2="1333.03" y2="829.63">
   <stop offset="0" style="stop-opacity:1; stop-color:#E87EA2"/>
   <stop offset="1" style="stop-opacity:1; stop-color:#FCD3A5"/>
  </linearGradient>
  <linearGradient id="id1" gradientUnits="userSpaceOnUse" xlink:href="#id0" x1="1194.72" y1="255.96" x2="1706.69" y2="255.96">
  </linearGradient>
  <linearGradient id="id2" gradientUnits="userSpaceOnUse" xlink:href="#id0" x1="1.49" y1="1441.85" x2="518.67" y2="1441.85">
  </linearGradient>
  <linearGradient id="id3" gradientUnits="userSpaceOnUse" x1="0" y1="853.33" x2="1706.69" y2="853.33">
   <stop offset="0" style="stop-opacity:1; stop-color:#C73C5B"/>
   <stop offset="1" style="stop-opacity:1; stop-color:#A32F60"/>
  </linearGradient>
  <linearGradient id="id4" gradientUnits="userSpaceOnUse" xlink:href="#id3" x1="-0" y1="1560.97" x2="291.41" y2="1560.97">
  </linearGradient>
 </defs>
 <g id="Layer_x0020_1">
  <metadata id="CorelCorpID_0Corel-Layer"/>
  <path class="fil0" d="M1633.94 72.74c-96.98,-96.98 -254.77,-97 -351.75,-0.02l-1113.9 1113.91c-11.65,11.65 -149.12,431.48 -166.81,483.62 -7.3,21.53 13.37,42.2 34.91,34.9 52.11,-17.66 472,-155.18 483.63,-166.8l1113.93 -1113.92c97,-96.95 96.98,-254.72 0,-351.7z"/>
  <path class="fil1" d="M225.41 1481.24c-19.85,-19.85 -125.38,-101.88 -143.69,-47.82l-80.23 236.85c-7.3,21.53 13.37,42.2 34.9,34.9l236.86 -80.21c54.07,-18.28 -27.99,-123.85 -47.84,-143.71z"/>
  <path class="fil2" d="M1324.96 516.58l-134.88 -134.88c-10.75,-10.74 -28.2,-10.73 -38.93,0l-722.06 722.06c-10.74,10.74 -10.74,28.2 0,38.93l134.88 134.88c10.74,10.74 28.19,10.74 38.93,0l722.06 -722.06c10.75,-10.72 10.74,-28.19 0,-38.93z"/>
  <path class="fil3" d="M1.48 1670.26c17.41,-51.31 150.8,-458.65 166.16,-482.75l165.46 -6.68 -6.06 119.44 99.36 -14.19 -22.31 103.41 114.57 -19.26 0 169.08c-27.58,16.08 -402.88,139.26 -475.46,163.56l230.06 -77.91c54.07,-18.28 -27.99,-123.85 -47.84,-143.71 -19.85,-19.85 -125.38,-101.88 -143.69,-47.82l-80.24 236.83z"/>
  <path class="fil4" d="M1194.72 160.2l87.48 -87.47c96.98,-96.98 254.77,-96.96 351.75,0.02 96.98,96.98 97,254.74 -0,351.7l-87.49 87.49 -351.73 -351.73z"/>
 </g>
</svg>
